[{
	"classification": [{
 	"reconnaissance": [{
 		"name" : "vulnerabilities"
 		},
 		{
 		"name" : "wordpress_version"
 		},
 		{
 		"name": "php"
 		},
 		{
 		"name": "plugins"
 		}],
 	"name": "credentials"
  }]
}]
