[
  {
    "name": "gobuster",
    "optionsid": "gobuster01",
    "optionsname": "",
    "delimiter": "space",
    "mode": {
      "options":["Mode: dir", "Mode: dns", "Mode: vhost", "Mode: fuzz", "Mode: s3", "Mode: gcs", "Mode: tftp"]   
    },
    "options": [
      {
        "title": "Mode",
        "maingroup": "Required",
        "subgroup": "",
        "flag": "",
        "value": "",
        "needcheckbox": false,
        "checkbox": false,
        "textinput": true,
        "information": "Select dir, dns, vhost, fuzz, s3, gcs or tftp",
        "regex": "XihkaXJ8ZG5zfHZob3N0fGZ1enxzM3xnY3N8dGZ0cCkk",
        "formattype": "select",
        "selectOptions": ["Mode: dir", "Mode: dns", "Mode: vhost", "Mode: fuzz", "Mode: s3", "Mode: gcs", "Mode: tftp"],
        "require": ["Wordlist Path"],
        "conflict": []
      
      },
      {
        "title": "Wordlist Path",
        "maingroup": "Required",
        "subgroup": "",
        "flag": "--wordlist",
        "value": "",
        "needcheckbox": false,
        "checkbox": false,
        "textinput": true,
        "information": "dir.txt / subdomains.txt / buckets.txt / fuzz.txt / files.txt",
        "regex": "XihodHRwfGh0dHBzKTovLy4qfC4qXC50eHQk",
        "require": ["Mode"],
        "selectOptions": ["dir.txt", "files.txt","subdomains.txt", "files.txt", "buckets.txt"],
        "conflict": [],
        "formattype": "text"
      },
      {
        "title": "Delay Between Requests",
        "maingroup": "Global options",
        "subgroup": "",
        "flag": "--delay",
        "value": "",
        "needcheckbox": true,
        "checkbox": false,
        "textinput": true,
        "information": "Time in ms each thread waits between requests. Between 100 and 10000.",
        "regex": "XigxMDB8WzEtOV1bMC05XXsyfDN9fDEwMDAwKQ==",
        "require": ["Mode"],
        "conflict": [],
        "formattype": "switch-textbox"
      },
      {
        "title": "Disable Color Output",
        "maingroup": "Global options",
        "subgroup": "",
        "flag": "--no-color",
        "value": "",
        "needcheckbox": true,
        "checkbox": false,
        "textinput": false,
        "information": "Disable color output",
        "regex": "",
        "require": ["Mode"],
        "conflict": [],
        "formattype": "switch"
      },
      {
        "title": "Disable Error Display",
        "maingroup": "Global options",
        "subgroup": "",
        "flag": "--no-error",
        "value": "",
        "needcheckbox": true,
        "checkbox": false,
        "textinput": false,
        "information": "Don't display errors",
        "regex": "",
        "require": ["Mode"],
        "conflict": [],
        "formattype": "switch"
      },
      {
        "title": "Disable Progress Display",
        "maingroup": "Global options",
        "subgroup": "",
        "flag": "--no-progress",
        "value": "",
        "needcheckbox": true,
        "checkbox": false,
        "textinput": false,
        "information": "Don't display progress",
        "regex": "",
        "require": ["Mode"],
        "conflict": [],
        "formattype": "switch-textbox"
      },
      {
        "title": "Output File",
        "maingroup": "Global options",
        "subgroup": "",
        "flag": "--output",
        "value": "",
        "needcheckbox": true,
        "checkbox": false,
        "textinput": true,
        "information": "Output file to write results to (defaults to stdout). 1 to 8 chars (a-z0-9) followed by '.txt'",
        "regex": "XlteYS16MC05XXsxLDh9XC50eHQk",
        "require": ["Mode"],
        "conflict": [],
        "formattype": "switch-textbox"
      },
      {
        "title": "Quiet Mode",
        "maingroup": "Global options",
        "subgroup": "",
        "flag": "--quiet",
        "value": "",
        "needcheckbox": true,
        "checkbox": false,
        "textinput": false,
        "information": "Don't print the banner and other noise",
        "regex": "",
        "require": ["Mode"],
        "conflict": [],
        "formattype": "switch"
      },
      {
        "title": "Concurrent Threads",
        "maingroup": "Global options",
        "subgroup": "",
        "flag": "--threads",
        "value": "",
        "needcheckbox": true,
        "checkbox": false,
        "textinput": true,
        "information": "Number of concurrent threads. Between 1 and 20",
        "regex": "XihbMS05XXwxWzAtOV18MjApJA==",
        "require": ["Mode"],
        "conflict": [],
        "formattype": "switch-textbox"
      },
      {
        "title": "Verbose Output",
        "maingroup": "Global options",
        "subgroup": "",
        "flag": "--verbose",
        "value": "",
        "needcheckbox": true,
        "checkbox": false,
        "textinput": false,
        "information": "Verbose output (errors)",
        "regex": "",
        "require": ["Mode"],
        "conflict": [],
        "formattype": "switch"
      },
      {
        "title": "Target Domain",
        "maingroup": "Mode: dns",
        "subgroup": "",
        "flag": "--domain",
        "value": "",
        "needcheckbox": true,
        "checkbox": false,
        "textinput": true,
        "information": "The target domain",
        "regex": "XihodHRwcz86Ly8pKFswLTldezEsM31cLlswLTldezEsM31cLlswLTldezEsM31cLlswLTldezEsM30pOlswLTldezEsNX0k",
        "require": [],
        "conflict": ["Target URL", "Target FUZZ", "Target TFTP Server"],
        "formattype": "switch-textbox"
      },
      {
        "title": "Custom DNS Server",
        "maingroup": "Mode: dns",
        "subgroup": "",
        "flag": "--resolver",
        "value": "",
        "needcheckbox": true,
        "checkbox": false,
        "textinput": true,
        "information": "Use custom DNS server (format server.com or server.com:port)",
        "regex": "XihbYS16QS1aMC05LSrdXC4pW2EtekEtXXsyLH0oOlxcZHsxLDV9KT8k",
        "require": ["Target Domain"],
        "conflict": [],
        "formattype": "switch-textbox"
      },
      {
        "title": "Show CNAME Records",
        "maingroup": "Mode: dns",
        "subgroup": "",
        "flag": "--show-cname",
        "value": "",
        "needcheckbox": true,
        "checkbox": false,
        "textinput": false,
        "information": "Show CNAME records (cannot be used with '-i' option)",
        "regex": "",
        "require": ["Target Domain"],
        "conflict": ["Show IP Addresses"],
        "formattype": "switch"
      },
      {
        "title": "Show IP Addresses",
        "maingroup": "Mode: dns",
        "subgroup": "",
        "flag": "--show-ips",
        "value": "",
        "needcheckbox": true,
        "checkbox": false,
        "textinput": false,
        "information": "Show IP addresses",
        "regex": "",
        "require": ["Target Domain"],
        "conflict": [],
        "formattype": "switch"
      },
      {
        "title": "DNS Resolver Timeout",
        "maingroup": "Mode: dns",
        "subgroup": "",
        "flag": "--timeout",
        "value": "",
        "needcheckbox": true,
        "checkbox": false,
        "textinput": true,
        "information": "DNS resolver timeout (default 1s)",
        "regex": "XigtW1stOV18WzEtNV1bMC05XXw2MCkk",
        "require": ["Target Domain"],
        "conflict": [],
        "formattype": "switch-textbox"
      },
      {
        "title": "Wildcard Operation",
        "maingroup": "Mode: dns",
        "subgroup": "",
        "flag": "--wildcard",
        "value": "",
        "needcheckbox": true,
        "checkbox": false,
        "textinput": false,
        "information": "Force continued operation when wildcard found",
        "regex": "",
        "require": ["Target Domain"],
        "conflict": [],
        "formattype": "switch"
      },
      {
        "title": "Target URL",
        "maingroup": "Mode: dir",
        "subgroup": "",
        "flag": "--url",
        "value": "",
        "needcheckbox": true,
        "checkbox": false,
        "textinput": true,
        "information": "The target URL: http[s]://<ip>[:port] or http[s]://<domain.com>[:port]",
        "regex": "XihodHRwcz86Ly8pKFswLTldezEsM31cLlswLTldezEsM31cLlswLTldezEsM31cLlswLTldezEsM30pOlswLTldezEsNX0k",
        "require": [],
        "conflict": ["Target Domain", "Target FUZZ", "Target TFTP Server"],
        "formattype": "switch-textbox"
      },
      {
        "title": "Append Slash",
        "maingroup": "Mode: dir",
        "subgroup": "",
        "flag": "--add-slash",
        "value": "",
        "needcheckbox": true,
        "checkbox": false,
        "textinput": false,
        "information": "Append / to each request",
        "regex": "",
        "require": ["Target URL"],
        "conflict": [],
        "formattype": "switch"
      },
      {
        "title": "Cookies",
        "maingroup": "Mode: dir",
        "subgroup": "",
        "flag": "--cookies",
        "value": "",
        "needcheckbox": true,
        "checkbox": false,
        "textinput": true,
        "information": "Cookies to use for the requests. Example: 'name1=value1; name2=value2[; name3=vamue3]'",
        "regex": "XihbYS16QS1aMC05X10rPVteO10rKSg7XFxzKlthLXpBLVowLTldKz1bXjtdKykk",
        "require": ["Target URL"],
        "conflict": [],
        "formattype": "switch-textbox"
      },
      {
        "title": "Discover Backup",
        "maingroup": "Mode: dir",
        "subgroup": "",
        "flag": "--discover-backup",
        "value": "",
        "needcheckbox": true,
        "checkbox": false,
        "textinput": false,
        "information": "Also search for backup files by appending multiple backup extensions",
        "regex": "",
        "require": ["Target URL"],
        "conflict": [],
        "formattype": "switch"
      },
      {
        "title": "Exclude Content Length",
        "maingroup": "Mode: dir",
        "subgroup": "",
        "flag": "--exclude-length",
        "value": "",
        "needcheckbox": true,
        "checkbox": false,
        "textinput": true,
        "information": "Exclude the following content length (completely ignores the status). Example: 2048",
        "regex": "Xig/OlsxLTldWzAtNF18MTAwMDAwfDApJA==",
        "require": ["Target URL"],
        "conflict": [],
        "formattype": "switch-textbox"
      },
      {
        "title": "Expanded Mode",
        "maingroup": "Mode: dir",
        "subgroup": "",
        "flag": "--expanded",
        "value": "",
        "needcheckbox": true,
        "checkbox": false,
        "textinput": false,
        "information": "Expanded mode, print full URLs",
        "regex": "",
        "require": ["Target URL"],
        "conflict": [],
        "formattype": "switch"
      },
      {
        "title": "File Extensions",
        "maingroup": "Mode: dir",
        "subgroup": "",
        "flag": "--extensions",
        "value": "",
        "needcheckbox": true,
        "checkbox": false,
        "textinput": true,
        "information": "File extension(s) to search for",
        "regex": "XihbYS1aQS1aMC05XXsxLDh9KSgoLFthLVo0LTldeywxLDh9KikqJA==",
        "require": ["Target URL"],
        "conflict": [],
        "formattype": "switch-textbox"
      },
      {
        "title": "Follow Redirects",
        "maingroup": "Mode: dir",
        "subgroup": "",
        "flag": "--follow-redirect",
        "value": "",
        "needcheckbox": true,
        "checkbox": false,
        "textinput": false,
        "information": "Follow redirects",
        "regex": "",
        "require": ["Target URL"],
        "conflict": [],
        "formattype": "switch"
      },
      {
        "title": "Specify HTTP Headers",
        "maingroup": "Mode: dir",
        "subgroup": "",
        "flag": "--headers",
        "value": "",
        "needcheckbox": true,
        "checkbox": false,
        "textinput": true,
        "information": "Specify HTTP headers, -H 'Header1: val1' -H 'Header2: val2'",
        "regex": "XltBLVphLXpBLVowLTlfXSs6XHM/Lisk",
        "require": ["Target URL"],
        "conflict": [],
        "formattype": "switch-textbox"
      },
      {
        "title": "Hide Content Length",
        "maingroup": "Mode: dir",
        "subgroup": "",
        "flag": "--hide-length",
        "value": "",
        "needcheckbox": true,
        "checkbox": false,
        "textinput": false,
        "information": "Hide the length of the body in the output",
        "regex": "",
        "require": ["Target URL"],
        "conflict": [],
        "formattype": "switch"
      },
      {
        "title": "HTTP Method",
        "maingroup": "Mode: dir",
        "subgroup": "",
        "flag": "--method",
        "value": "",
        "needcheckbox": true,
        "checkbox": false,
        "textinput": true,
        "information": "Use the following HTTP method (default \"GET\")",
        "regex": "XihHRVR8UE9TVHxQVVR8REVMRVRFfFBhdENIfEhFQUR8T1BUSU9OU3xDT05ORUNUfFRSQUNFKQ==",
        "require": ["Target URL"],
        "conflict": [],
        "formattype": "switch-textbox"
      },
      {
        "title": "Omit Status Codes",
        "maingroup": "Mode: dir",
        "subgroup": "",
        "flag": "--no-status",
        "value": "",
        "needcheckbox": true,
        "checkbox": false,
        "textinput": false,
        "information": "Don't print status codes",
        "regex": "",
        "require": ["Target URL"],
        "conflict": [],
        "formattype": "switch"
      },
      {
        "title": "Skip TLS Validation",
        "maingroup": "Mode: dir",
        "subgroup": "",
        "flag": "--no-tls-validation",
        "value": "",
        "needcheckbox": true,
        "checkbox": false,
        "textinput": false,
        "information": "Skip TLS certificate verification",
        "regex": "",
        "require": ["Target URL"],
        "conflict": [],
        "formattype": "switch"
      },
      {
        "title": "Basic Auth Password",
        "maingroup": "Mode: dir",
        "subgroup": "",
        "flag": "--password",
        "value": "",
        "needcheckbox": true,
        "checkbox": false,
        "textinput": true,
        "information": "Password for Basic Auth",
        "regex": "Xi57NCwyMH0k",
        "require": ["Target URL"],
        "conflict": [],
        "formattype": "switch-textbox"
      },
      {
        "title": "Proxy",
        "maingroup": "Mode: dir",
        "subgroup": "",
        "flag": "--proxy",
        "value": "",
        "needcheckbox": true,
        "checkbox": false,
        "textinput": true,
        "information": "Proxy to use for requests: http[s]://host:port]",
        "regex": "Xmh0dHBzPzpcLy9bYS16QS1aMC05Li1dKzpcWzAtOV0rJA==",
        "require": ["Target URL"],
        "conflict": [],
        "formattype": "switch-textbox"
      },
      {
        "title": "Random User-Agent",
        "maingroup": "Mode: dir",
        "subgroup": "",
        "flag": "--random-agent",
        "value": "",
        "needcheckbox": true,
        "checkbox": false,
        "textinput": false,
        "information": "Use a random User-Agent string",
        "regex": "",
        "require": ["Target URL"],
        "conflict": [],
        "formattype": "switch"
      },
      {
        "title": "Retry On Timeout",
        "maingroup": "Mode: dir",
        "subgroup": "",
        "flag": "--retry",
        "value": "",
        "needcheckbox": true,
        "checkbox": false,
        "textinput": false,
        "information": "Should retry on request timeout",
        "regex": "",
        "require": ["Target URL"],
        "conflict": [],
        "formattype": "switch"
      },
      {
        "title": "Retry Attempts",
        "maingroup": "Mode: dir",
        "subgroup": "",
        "flag": "--retry-attempts",
        "value": "",
        "needcheckbox": true,
        "checkbox": false,
        "textinput": true,
        "information": "Times to retry on request timeout. Between 1 and 20.",
        "regex": "XigxP1swLTldfDIwKSQ=",
        "require": ["Target URL"],
        "conflict": [],
        "formattype": "switch-textbox"
      },
      {
        "title": "Positive Status Codes",
        "maingroup": "Mode: dir",
        "subgroup": "",
        "flag": "--status-codes",
        "value": "",
        "needcheckbox": true,
        "checkbox": false,
        "textinput": true,
        "information": "Positive status codes: 200[,201,202]",
        "regex": "XigxMDAgfFswLTldezJ9KSwgKDEwMHxbfFswLTldezJ9KSoJJG==",
        "require": ["Target URL"],
        "conflict": ["Negative Status Codes"],
        "formattype": "switch-textbox"
      },
      {
        "title": "Negative Status Codes",
        "maingroup": "Mode: dir",
        "subgroup": "",
        "flag": "--status-codes-blacklist",
        "value": "",
        "needcheckbox": true,
        "checkbox": false,
        "textinput": true,
        "information": "Negative status codes: 400[,401,402]",
        "regex": "XigxMDAgfFswLTldezJ9KSwgKDEwMHxbfFswLTldezJ9KSoJJG==",
        "require": ["Target URL"],
        "conflict": ["Positive Status Codes"],
        "formattype": "switch-textbox"
      },
      {
        "title": "HTTP Timeout",
        "maingroup": "Mode: dir",
        "subgroup": "",
        "flag": "--timeout",
        "value": "",
        "needcheckbox": true,
        "checkbox": false,
        "textinput": true,
        "information": "HTTP Timeout: between 1s and 60s",
        "regex": "Xig/OlsxLTldc3xbMS01XVswLTldc3w2MHMpJA==",
        "require": ["Target URL"],
        "conflict": [],
        "formattype": "switch-textbox"
      },
      {
        "title": "User-Agent String",
        "maingroup": "Mode: dir",
        "subgroup": "",
        "flag": "--useragent",
        "value": "",
        "needcheckbox": true,
        "checkbox": false,
        "textinput": true,
        "information": "Set the User-Agent string (default \"gobuster/3.2.0\")",
        "regex": "Xi4qJA==",
        "require": ["Target URL"],
        "conflict": [],
        "formattype": "switch-textbox"
      },
      {
        "title": "Basic Auth Username",
        "maingroup": "Mode: dir",
        "subgroup": "",
        "flag": "--username",
        "value": "",
        "needcheckbox": true,
        "checkbox": false,
        "textinput": true,
        "information": "Username for Basic Auth",
        "regex": "XlteYS1aQS1aMC05Ll9dezMsMjB9JA==",
        "require": ["Target URL"],
        "conflict": [],
        "formattype": "switch-textbox"
      },
      {
        "title": "Target FUZZ",
        "maingroup": "Mode: fuzz",
        "subgroup": "",
        "flag": "-u",
        "value": "",
        "needcheckbox": true,
        "checkbox": false,
        "textinput": true,
        "information": "The target URL",
        "regex": "XihbYS16QS1aMC05LV0rXC4pK1thLXpBLVpdezIsfSQ=",
        "require": [],
        "conflict": ["Target Domain", "Target URL", "Target TFTP Server"],
        "formattype": "switch-textbox"
      },
      {
        "title": "Cookies",
        "maingroup": "Mode: fuzz",
        "subgroup": "",
        "flag": "--cookies",
        "value": "",
        "needcheckbox": true,
        "checkbox": false,
        "textinput": true,
        "information": "Cookies to use for the requests",
        "regex": "XihbYS16QS1aMC05X10rPVteO10rKSg7XFxzKlthLXpBLVowLTldKz1bXjtdKykk",
        "require": ["Target FUZZ"],
        "conflict": [],
        "formattype": "switch-textbox"
      },
      {
        "title": "Exclude Content Length",
        "maingroup": "Mode: fuzz",
        "subgroup": "",
        "flag": "--exclude-length",
        "value": "",
        "needcheckbox": true,
        "checkbox": false,
        "textinput": true,
        "information": "Exclude the following content length (completely ignores the status). Example: 2048",
        "regex": "Xig/OlsxLTldWzAtNF18MTAwMDAwfDApJA==",
        "require": ["Target FUZZ"],
        "conflict": [],
        "formattype": "switch-textbox"
      },
      {
        "title": "Negative Status Codes",
        "maingroup": "Mode: fuzz",
        "subgroup": "",
        "flag": "--excludestatuscodes",
        "value": "",
        "needcheckbox": true,
        "checkbox": false,
        "textinput": true,
        "information": "Negative status codes (will override statuscodes if set)",
        "regex": "XigxMDAgfFswLTldezJ9KSwgKDEwMHxbfFswLTldezJ9KSoJJG==",
        "require": ["Target FUZZ"],
        "conflict": [],
        "formattype": "switch-textbox"
      },
      {
        "title": "Follow Redirects",
        "maingroup": "Mode: fuzz",
        "subgroup": "",
        "flag": "--follow-redirect",
        "value": "",
        "needcheckbox": true,
        "checkbox": false,
        "textinput": false,
        "information": "Follow redirects",
        "regex": "",
        "require": ["Target FUZZ"],
        "conflict": [],
        "formattype": "switch"
      },
      {
        "title": "Specify HTTP Headers",
        "maingroup": "Mode: fuzz",
        "subgroup": "",
        "flag": "--headers",
        "value": "",
        "needcheckbox": true,
        "checkbox": false,
        "textinput": true,
        "information": "Specify HTTP headers, -H 'Header1: val1' -H 'Header2: val2'",
        "regex": "XltBLVphLXpBLVowLTlfXSs6XHM/Lisk",
        "require": ["Target FUZZ"],
        "conflict": [],
        "formattype": "switch-textbox"
      },
      {
        "title": "HTTP Method",
        "maingroup": "Mode: fuzz",
        "subgroup": "",
        "flag": "--method",
        "value": "",
        "needcheckbox": true,
        "checkbox": false,
        "textinput": true,
        "information": "Use the following HTTP method (default \"GET\")",
        "regex": "XihHRVR8UE9TVHxQVVR8REVMRVRFfFBhdENIfEhFQUR8T1BUSU9OU3xDT05ORUNUfFRSQUNFKQ==",
        "require": ["Target FUZZ"],
        "conflict": [],
        "formattype": "switch-textbox"
      },
      {
        "title": "Skip TLS Validation",
        "maingroup": "Mode: fuzz",
        "subgroup": "",
        "flag": "--no-tls-validation",
        "value": "",
        "needcheckbox": true,
        "checkbox": false,
        "textinput": false,
        "information": "Skip TLS certificate verification",
        "regex": "",
        "require": ["Target FUZZ"],
        "conflict": [],
        "formattype": "switch"
      },
      {
        "title": "Basic Auth Password",
        "maingroup": "Mode: fuzz",
        "subgroup": "",
        "flag": "--password",
        "value": "",
        "needcheckbox": true,
        "checkbox": false,
        "textinput": true,
        "information": "Password for Basic Auth",
        "regex": "Xi57NCwyMH0k",
        "require": ["Target FUZZ"],
        "conflict": [],
        "formattype": "switch-textbox"
      },
      {
        "title": "Proxy",
        "maingroup": "Mode: fuzz",
        "subgroup": "",
        "flag": "--proxy",
        "value": "",
        "needcheckbox": true,
        "checkbox": false,
        "textinput": true,
        "information": "Proxy to use for requests: http[s]://host:port]",
        "regex": "Xmh0dHBzPzpcLy9bYS16QS1aMC05Li1dKzpcWzAtOV0rJA==",
        "require": ["Target FUZZ"],
        "conflict": [],
        "formattype": "switch-textbox"
      },
      {
        "title": "Random User-Agent",
        "maingroup": "Mode: fuzz",
        "subgroup": "",
        "flag": "--random-agent",
        "value": "",
        "needcheckbox": true,
        "checkbox": false,
        "textinput": false,
        "information": "Use a random User-Agent string",
        "regex": "Xi4qJA==",
        "require": ["Target FUZZ"],
        "conflict": [],
        "formattype": "switch"
      },
      {
        "title": "Retry On Timeout",
        "maingroup": "Mode: fuzz",
        "subgroup": "",
        "flag": "--retry",
        "value": "",
        "needcheckbox": true,
        "checkbox": false,
        "textinput": false,
        "information": "Should retry on request timeout",
        "regex": "",
        "require": ["Target FUZZ"],
        "conflict": [],
        "formattype": "switch"
      },
      {
        "title": "Retry Attempts",
        "maingroup": "Mode: fuzz",
        "subgroup": "",
        "flag": "--retry-attempts",
        "value": "",
        "needcheckbox": true,
        "checkbox": false,
        "textinput": true,
        "information": "Times to retry on request timeout (default 3)",
        "regex": "XihbMC05XXwxfFt0MF05XXwyMCkk",
        "require": ["Target FUZZ"],
        "conflict": [],
        "formattype": "switch-textbox"
      },
      {
        "title": "HTTP Timeout",
        "maingroup": "Mode: fuzz",
        "subgroup": "",
        "flag": "--timeout",
        "value": "",
        "needcheckbox": true,
        "checkbox": false,
        "textinput": true,
        "information": "HTTP Timeout (default 10s)",
        "regex": "Xig/OjFbLTldfFswLTVdWzAtOV18NjApcyQ=",
        "require": ["Target FUZZ"],
        "conflict": [],
        "formattype": "switch-textbox"
      },
      {
        "title": "User-Agent String",
        "maingroup": "Mode: fuzz",
        "subgroup": "",
        "flag": "--useragent",
        "value": "",
        "needcheckbox": true,
        "checkbox": false,
        "textinput": true,
        "information": "Set the User-Agent string (default \"gobuster/3.2.0\")",
        "regex": "Xi4qJA==",
        "require": ["Target FUZZ"],
        "conflict": [],
        "formattype": "switch-textbox"
      },
      {
        "title": "Basic Auth Username",
        "maingroup": "Mode: fuzz",
        "subgroup": "",
        "flag": "--username",
        "value": "",
        "needcheckbox": true,
        "checkbox": false,
        "textinput": true,
        "information": "Username for Basic Auth",
        "regex": "Xi57NCwyMH0k",
        "require": ["Target FUZZ"],
        "conflict": [],
        "formattype": "switch-textbox"
      },
      {
        "title": "Max Files",
        "maingroup": "Mode: s3",
        "subgroup": "",
        "flag": "--maxfiles",
        "value": "",
        "needcheckbox": true,
        "checkbox": false,
        "textinput": true,
        "information": "max files to list when listing buckets (default 5)",
        "regex": "XigxP1swLTldfDIwKSQ=",
        "require": [],
        "conflict": [],
        "formattype": "switch-textbox"
      },
      {
        "title": "Skip TLS Validation",
        "maingroup": "Mode: s3",
        "subgroup": "",
        "flag": "--no-tls-validation",
        "value": "",
        "needcheckbox": true,
        "checkbox": false,
        "textinput": false,
        "information": "Skip TLS certificate verification",
        "regex": "",
        "require": [],
        "conflict": [],
        "formattype": "switch"
      },
      {
        "title": "Proxy",
        "maingroup": "Mode: s3",
        "subgroup": "",
        "flag": "--proxy",
        "value": "",
        "needcheckbox": true,
        "checkbox": false,
        "textinput": true,
        "information": "Proxy to use for requests [http(s)://host:port]",
        "regex": "Xmh0dHBzPzpcLy9bYS16QS1aMC05Li1dKzpcWzAtOV0rJA==",
        "require": [],
        "conflict": [],
        "formattype": "switch-textbox"
      },
      {
        "title": "Random User-Agent",
        "maingroup": "Mode: s3",
        "subgroup": "",
        "flag": "--random-agent",
        "value": "",
        "needcheckbox": true,
        "checkbox": false,
        "textinput": false,
        "information": "Use a random User-Agent string",
        "regex": "Xi4qJA==",
        "require": [],
        "conflict": [],
        "formattype": "switch"
      },
      {
        "title": "Retry On Timeout",
        "maingroup": "Mode: s3",
        "subgroup": "",
        "flag": "--retry",
        "value": "",
        "needcheckbox": true,
        "checkbox": false,
        "textinput": false,
        "information": "Should retry on request timeout",
        "regex": "",
        "require": [],
        "conflict": [],
        "formattype": "switch"
      },
      {
        "title": "Retry Attempts",
        "maingroup": "Mode: s3",
        "subgroup": "",
        "flag": "--retry-attempts",
        "value": "",
        "needcheckbox": true,
        "checkbox": false,
        "textinput": true,
        "information": "Times to retry on request timeout (default 3)",
        "regex": "XigxP1swLTldfDIwKSQ=",
        "require": [],
        "conflict": [],
        "formattype": "switch-textbox"
      },
      {
        "title": "HTTP Timeout",
        "maingroup": "Mode: s3",
        "subgroup": "",
        "flag": "--timeout",
        "value": "",
        "needcheckbox": true,
        "checkbox": false,
        "textinput": true,
        "information": "HTTP Timeout (default 10s)",
        "regex": "Xig/OjFbLTldfFswLTVdWzAtOV18NjApcyQ=",
        "require": [],
        "conflict": [],
        "formattype": "switch-textbox"
      },
      {
        "title": "User-Agent String",
        "maingroup": "Mode: s3",
        "subgroup": "",
        "flag": "--useragent",
        "value": "",
        "needcheckbox": true,
        "checkbox": false,
        "textinput": true,
        "information": "Set the User-Agent string (default \"gobuster/3.2.0\")",
        "regex": "Xi4qJA==",
        "require": [],
        "conflict": [],
        "formattype": "switch-textbox"
      },
      {
        "title": "Max Files",
        "maingroup": "Mode: gcs",
        "subgroup": "",
        "flag": "--maxfiles",
        "value": "",
        "needcheckbox": true,
        "checkbox": false,
        "textinput": false,
        "information": "max files to list when listing buckets (only shown in verbose mode)",
        "regex": "XigxP1swLTldfDIwKSQ=",
        "require": [],
        "conflict": [],
        "formattype": "switch"
      },
      {
        "title": "Skip TLS Validation",
        "maingroup": "Mode: gcs",
        "subgroup": "",
        "flag": "--no-tls-validation",
        "value": "",
        "needcheckbox": true,
        "checkbox": false,
        "textinput": false,
        "information": "Skip TLS certificate verification",
        "regex": "",
        "require": [],
        "conflict": [],
        "formattype": "switch"
      },
      {
        "title": "Proxy",
        "maingroup": "Mode: gcs",
        "subgroup": "",
        "flag": "--proxy",
        "value": "",
        "needcheckbox": true,
        "checkbox": false,
        "textinput": true,
        "information": "Proxy to use for requests [http(s)://host:port]",
        "regex": "Xmh0dHBzPzpcLy9bYS16QS1aMC05Li1dKzpcWzAtOV0rJA==",
        "require": [],
        "conflict": [],
        "formattype": "switch-textbox"
      },
      {
        "title": "Random User-Agent",
        "maingroup": "Mode: gcs",
        "subgroup": "",
        "flag": "--random-agent",
        "value": "",
        "needcheckbox": true,
        "checkbox": false,
        "textinput": false,
        "information": "Use a random User-Agent string",
        "regex": "Xi4qJA==",
        "require": [],
        "conflict": [],
        "formattype": "switch"
      },
      {
        "title": "Retry On Timeout",
        "maingroup": "Mode: gcs",
        "subgroup": "",
        "flag": "--retry",
        "value": "",
        "needcheckbox": true,
        "checkbox": false,
        "textinput": false,
        "information": "Should retry on request timeout",
        "regex": "",
        "require": [],
        "conflict": [],
        "formattype": "switch"
      },
      {
        "title": "Retry Attempts",
        "maingroup": "Mode: gcs",
        "subgroup": "",
        "flag": "--retry-attempts",
        "value": "",
        "needcheckbox": true,
        "checkbox": false,
        "textinput": true,
        "information": "Times to retry on request timeout (default 3)",
        "regex": "XigxP1swLTldfDIwKSQ=",
        "require": [],
        "conflict": [],
        "formattype": "switch-textbox"
      },
      {
        "title": "HTTP Timeout",
        "maingroup": "Mode: gcs",
        "subgroup": "",
        "flag": "--timeout",
        "value": "",
        "needcheckbox": true,
        "checkbox": false,
        "textinput": true,
        "information": "HTTP Timeout (default 10s)",
        "regex": "Xig/OjFbLTldfFswLTVdWzAtOV18NjApcyQ=",
        "require": [],
        "conflict": [],
        "formattype": "switch-textbox"
      },
      {
        "title": "User-Agent String",
        "maingroup": "Mode: gcs",
        "subgroup": "",
        "flag": "--useragent",
        "value": "",
        "needcheckbox": true,
        "checkbox": false,
        "textinput": true,
        "information": "Set the User-Agent string (default \"gobuster/3.2.0\")",
        "regex": "Xi4qJA==",
        "require": [],
        "conflict": [],
        "formattype": "switch-textbox"
      },
      {
        "title": "Target TFTP Server",
        "maingroup": "Mode: tftp",
        "subgroup": "",
        "flag": "--server",
        "value": "",
        "needcheckbox": true,
        "checkbox": false,
        "textinput": true,
        "information": "The target TFTP server",
        "regex": "XnRmdHAuW2EtekEtWjAtOS4tXStcLmF6QS1aXXsyLH0k",
        "require": [],
        "conflict": ["Target Domain", "Target URL", "Target FUZZ"],
        "formattype": "switch-textbox"
      },
      {
        "title": "TFTP Timeout",
        "maingroup": "Mode: tftp",
        "subgroup": "",
        "flag": "--timeout",
        "value": "",
        "needcheckbox": true,
        "checkbox": false,
        "textinput": true,
        "information": "TFTP timeout (default 1s)",
        "regex": "Xig/OlsxLTldc3xbMS01XVswLTldc3w2MHMpJA==",
        "require": ["Target TFTP Server"],
        "conflict": [],
        "formattype": "switch-textbox"
      }
    ]
  }
]