[{
 "attackname": "traceroute",
 "attackid": "7",
 "state":"notExecuted",
 "step": "notExecuted",
 "typeattack": "traceroute",
 "resultsid": "",
 "errormsg":"",
 "dockerimage" : "registry.gitlab.com/huntdownupc/attacks/traceroute:latest",
 "os_type": "debian",
 "runnertype":"vagrant",
 "dependencies": [
  {
   "key": "traceroute",
   "size": "30MB"
  }
 ],
 "clicommands": [
  {
   "action": "traceroute",
   "optionsid": "traceroute01",
   "options": "",
   "redirectstdin": "",
   "redirectstdout": "",
   "redirectstderr": "",
   "pipe": false,
   "backgroundjob": false,
   "conncatenatecommands": false,
   "timeout": "",
   "fileoutput": false,
   "outputtype": "",
   "needresults": true
  }
 ]
}]
