[
    {
        "name": "socialscanner",
        "optionsid": "socialscanner01",
        "optionsname": "",
        "options": [
            {
                "title": "User",
                "maingroup": "Required",
                "subgroup": "",
                "flag": "-user",
                "value": "",
                "needcheckbox": false,
                "checkbox": false,
                "textinput": true,
                "information": "Specify the user which will be tested",
                "regex": "XlxTKyQ=",
                "formattype": "text"
            },
            {
                "title": "Target Count",
                "maingroup": "Required",
                "subgroup": "",
                "flag": "-num",
                "value": "",
                "needcheckbox": false,
                "checkbox": false,
                "textinput": true,
                "information": "Specify the number of social media networks you want to be scanned, from 1 to 1000.",
                "regex": "Xig/OlsxLTldfFsxLTldXGR8WzEtOV1cZHsyfXwxMDAwKSQ=",
                "formattype": "text"
            },
            {
                "title": "Key",
                "maingroup": "Required",
                "subgroup": "",
                "flag": "-key",
                "value": "",
                "needcheckbox": false,
                "checkbox": false,
                "textinput": true,
                "information": "Specify the API Key from rapidapi.com",
                "regex": "",
                "formattype": "secret"
            }
        ]
    }
]