{
    "name": "User Exists",
    "description": "Check if a user exists in the database without authorization",
    "users": [],
    "actions": [
        {
            "id": "create_user",
            "topic": "ui-db.createUser",
            "request": {
                "username": "test@test.com",
                "hash": "3bab011a9fbb6df726c21ada3ca1f43db31636777136b9998e07bf7e6364dc312dcd75e93187e2fb850868c3fa05251eb1dd314e072e7684ed092de301c36e1d"
            },
            "response": {}
        },
        {
            "id": "user_exists",
            "topic": "ui-db.UserExists",
            "request": {
                "username": "test@test.com"
            },
            "response": {
                "success": "true"
            }
        }
    ]
}