{
	"workflow": "fierce_basic",
	"results": {
		"ns": "ns",
		"soa": [
			{
				"ip": "xxx.xxx.xxx.xxx",
				"ns": "ns"
			}
		],
		"zone": "zone",
		"wildcard": "wc",
		"found": [
			{
				"ip": "xxx.xxx.xxx.xxx",
				"dnsname": "dnsname",
				"nearby": [
					{
						"ip": "xxx.xxx.xxx.xxx",
						"dnsname": "dnsname"
					}
				]
			}
		]
	}
}
