[{
 "attackname": "fierce",
 "attackid": "11",
 "state":"notExecuted",
 "step": "notExecuted",
 "typeattack": "fierce",
 "resultsid": "",
 "errormsg":"",
 "dockerimage" : "registry.gitlab.com/huntdownupc/attacks/fierce:latest",
 "os_type": "debian",
 "runnertype":"vagrant",
 "dependencies": [
  {
   "key": "python3-pip",
   "size": "44MB"
  }
 ],
 "clicommands": [
  {
   "action": "pip3 install fierce",
   "optionsid": "",
   "options": "",
   "redirectstdin": "",
   "redirectstdout": "",
   "redirectstderr": "",
   "pipe": false,
   "backgroundjob": false,
   "conncatenatecommands": false,
   "timeout": "",
   "fileoutput": false,
   "outputtype": "",
   "needresults": false
  },
  {
   "action": ".local/bin/fierce",
   "optionsid": "fierce01",
   "options": "",
   "redirectstdin": "",
   "redirectstdout": "",
   "redirectstderr": "",
   "pipe": false,
   "backgroundjob": false,
   "conncatenatecommands": false,
   "timeout": "",
   "fileoutput": false,
   "outputtype": "",
   "needresults": true
  }
 ]
}]
