module information-gathering

go 1.20

require gitlab.com/HuntDownUPC/go-modules/PulsarLib/v2 v2.0.0-20230309000112-5f41362b7416

require (
	github.com/99designs/go-keychain v0.0.0-20191008050251-8e49817e8af4 // indirect
	github.com/99designs/keyring v1.2.1 // indirect
	github.com/AthenZ/athenz v1.10.39 // indirect
	github.com/DataDog/zstd v1.5.0 // indirect
	github.com/ardielle/ardielle-go v1.5.2 // indirect
	github.com/beorn7/perks v1.0.1 // indirect
	github.com/bits-and-blooms/bitset v1.4.0 // indirect
	github.com/cespare/xxhash/v2 v2.1.1 // indirect
	github.com/danieljoos/wincred v1.1.2 // indirect
	github.com/dvsekhvalnov/jose2go v1.5.0 // indirect
	github.com/godbus/dbus v0.0.0-20190726142602-4481cbc300e2 // indirect
	github.com/golang-jwt/jwt v3.2.1+incompatible // indirect
	github.com/golang/protobuf v1.5.2 // indirect
	github.com/golang/snappy v0.0.1 // indirect
	github.com/gsterjov/go-libsecret v0.0.0-20161001094733-a6f4afe4910c // indirect
	github.com/jung-kurt/gofpdf v1.16.2 // indirect
	github.com/klauspost/compress v1.14.4 // indirect
	github.com/konsorten/go-windows-terminal-sequences v1.0.3 // indirect
	github.com/linkedin/goavro/v2 v2.9.8 // indirect
	github.com/matttproud/golang_protobuf_extensions v1.0.1 // indirect
	github.com/mtibben/percent v0.2.1 // indirect
	github.com/pierrec/lz4 v2.0.5+incompatible // indirect
	github.com/pkg/errors v0.9.1 // indirect
	github.com/prometheus/client_golang v1.11.1 // indirect
	github.com/prometheus/client_model v0.2.0 // indirect
	github.com/prometheus/common v0.26.0 // indirect
	github.com/prometheus/procfs v0.6.0 // indirect
	github.com/sirupsen/logrus v1.6.0 // indirect
	github.com/spaolacci/murmur3 v1.1.0 // indirect
	go.uber.org/atomic v1.7.0 // indirect
	golang.org/x/mod v0.5.1 // indirect
	golang.org/x/net v0.0.0-20220225172249-27dd8689420f // indirect
	golang.org/x/oauth2 v0.0.0-20210402161424-2e8d93401602 // indirect
	golang.org/x/sys v0.0.0-20220204135822-1c1b9b1eba6a // indirect
	golang.org/x/term v0.0.0-20210927222741-03fcf44c2211 // indirect
	google.golang.org/appengine v1.6.7 // indirect
	google.golang.org/protobuf v1.26.0 // indirect
)
