{
    "attackname": "string",
    "attackid": "string",
    "resultsid": "string",
    "state": "string", 
    "step": "string",
    "typeattack": "string",
    "errormsg":"string",
    "dependencies":[
        {
            "key": "string",
            "size": "string"
        }
	],
    "clicommands":[
        {
            "action": "string",
            "optionsid": "string",
            "options": "string", 
            "redirectstdin": "string",
            "redirectstdout": "string",
            "redirectstderr": "string",
            "pipe": "bool",
            "backgroundjob": "bool",
            "conncatenatecommands": "bool",
            "timeout": "string",
            "fileoutput": "bool",
            "outputtype": "string",
            "needresults": "bool"
        }        
    ]
} 
