[
    {
        "name": "nuclei",
        "optionsid": "nuclei01",
        "optionsname": "",
        "options": [
            {
                "title": "Target hosts to scan",
                "maingroup": "Required",
                "subgroup": "",
                "flag": "-u",
                "value": "",
                "needcheckbox": false,
                "checkbox": false,
                "textinput": true,
                "information": "Specify Target URLs/hosts to scan",
                "regex": "XihbYS16QS1aMC05XShbYS16QS1aMC05XC1dezAsNjF9W2EtekEtWjAtOV0pP1wuKStbYS16QS1aXXsyLDZ9JA==",
                "formattype": "text"
            },
            {
                "title": "Run only new templates",
                "maingroup": "Templates",
                "subgroup": "template",
                "flag": "-nt",
                "value": "",
                "needcheckbox": true,
                "checkbox": false,
                "textinput": false,
                "information": "Run only new templates added in latest nuclei-templates release",
                "regex": "",
                "formattype": "switch"
            },
            {
                "title": "Templates to run",
                "maingroup": "Templates",
                "subgroup": "template",
                "flag": "-t",
                "value": "",
                "needcheckbox": true,
                "checkbox": false,
                "textinput": true,
                "information": "List of template or template directory to run (comma-separated, ",
                "regex": "XihbQS1aYS16MC05Xy4tXSsoPzpcL1tBLVphLXowLTlfLi1dKykrKSgsW0EtWmEtejAtOV8uLV0rKD86XC9bQS1aYS16MC05Xy4tXSspKykqJA==",
                "formattype": "switch-textbox"
            },
            {
                "title": "Workflows to run",
                "maingroup": "Templates",
                "subgroup": "",
                "flag": "-w",
                "value": "",
                "needcheckbox": true,
                "checkbox": false,
                "textinput": true,
                "information": "List of workflow or workflow directory to run (comma-separated, file)",
                "regex": "XihbQS1aYS16MC05Xy4tXSsoPzpcL1tBLVphLXowLTlfLi1dKykrKSgsW0EtWmEtejAtOV8uLV0rKD86XC9bQS1aYS16MC05Xy4tXSspKykqJA==",
                "formattype": "switch-textbox"
            },
            {
                "title": "Templates based on authors",
                "maingroup": "Filtering",
                "subgroup": "",
                "flag": "-a",
                "value": "",
                "needcheckbox": true,
                "checkbox": false,
                "textinput": true,
                "information": "Templates to run based on authors (comma-separated)",
                "regex": "XihcdyspKCxcdyspKiQ=",
                "formattype": "switch-textbox"
            },
            {
                "title": "Templates based on tags",
                "maingroup": "Filtering",
                "subgroup": "",
                "flag": "-tags",
                "value": "",
                "needcheckbox": true,
                "checkbox": false,
                "textinput": true,
                "information": "Templates to run based on tags (comma-separated)",
                "regex": "XihcdyspKCxcdyspKiQ=",
                "formattype": "switch-textbox"
            },
            {
                "title": "Exclude templates based on tags",
                "maingroup": "Filtering",
                "subgroup": "",
                "flag": "-etags",
                "value": "",
                "needcheckbox": true,
                "checkbox": false,
                "textinput": true,
                "information": "Templates to exclude based on tags (comma-separated)",
                "regex": "XihcdyspKCxcdyspKiQ=",
                "formattype": "switch-textbox"
            },
            {
                "title": "Include templates based on tags",
                "maingroup": "Filtering",
                "subgroup": "",
                "flag": "-itags",
                "value": "",
                "needcheckbox": true,
                "checkbox": false,
                "textinput": true,
                "information": "Tags to be executed even if they are excluded either by default or configuration",
                "regex": "XihcdyspKCxcdyspKiQ=",
                "formattype": "switch-textbox"
            },
            {
                "title": "Templates based on template IDs",
                "maingroup": "Filtering",
                "subgroup": "",
                "flag": "-id",
                "value": "",
                "needcheckbox": true,
                "checkbox": false,
                "textinput": true,
                "information": "Templates to run based on template IDs (comma-separated, file, allow-wildcard)",
                "regex": "XihcdyspKCxcdyspKiQ=",
                "formattype": "switch-textbox"
            },
            {
                "title": "Exclude templates based on template IDs",
                "maingroup": "Filtering",
                "subgroup": "",
                "flag": "-eid",
                "value": "",
                "needcheckbox": true,
                "checkbox": false,
                "textinput": true,
                "information": "Templates to exclude based on template IDs (comma-separated)",
                "regex": "XihcdyspKCxcdyspKiQ=",
                "formattype": "switch-textbox"
            },
            {
                "title": "Include templates",
                "maingroup": "Filtering",
                "subgroup": "",
                "flag": "-it",
                "value": "",
                "needcheckbox": true,
                "checkbox": false,
                "textinput": true,
                "information": "Templates to be executed even if they are excluded either by default or configuration",
                "regex": "XihcdyspKCxcdyspKiQ=",
                "formattype": "switch-textbox"
            },
            {
                "title": "Exclude templates",
                "maingroup": "Filtering",
                "subgroup": "",
                "flag": "-et",
                "value": "",
                "needcheckbox": true,
                "checkbox": false,
                "textinput": true,
                "information": "Template or template directory to exclude (comma-separated)",
                "regex": "XihcdyspKCxcdyspKiQ=",
                "formattype": "switch-textbox"
            },
            {
                "title": "Templates based on severity",
                "maingroup": "Filtering",
                "subgroup": "",
                "flag": "-s",
                "value": "",
                "needcheckbox": true,
                "checkbox": false,
                "textinput": true,
                "information": "Templates to run based on severity. Possible values: info, low, medium, high, critical, unknown",
                "regex": "XihpbmZvfGxvd3xtZWRpdW18aGlnaHxjcml0aWNhbHx1bmtub3duKSgsKGluZm98bG93fG1lZGl1bXxoaWdofGNyaXRpY2FsfHVua25vd24pKSok",
                "formattype": "switch-textbox"
            },
            {
                "title": "Exclude templates based on severity",
                "maingroup": "Filtering",
                "subgroup": "",
                "flag": "-es",
                "value": "",
                "needcheckbox": true,
                "checkbox": false,
                "textinput": true,
                "information": "Templates to exclude based on severity. Possible values: info, low, medium, high, critical, unknown",
                "regex": "XihpbmZvfGxvd3xtZWRpdW18aGlnaHxjcml0aWNhbHx1bmtub3duKSgsKGluZm98bG93fG1lZGl1bXxoaWdofGNyaXRpY2FsfHVua25vd24pKSok",
                "formattype": "switch-textbox"
            },
            {
                "title": "Templates based on protocol type",
                "maingroup": "Filtering",
                "subgroup": "",
                "flag": "-pt",
                "value": "",
                "needcheckbox": true,
                "checkbox": false,
                "textinput": true,
                "information": "Templates to run based on protocol type. Possible values: dns, file, http, headless, tcp, workflow, ssl, websocket, whois, code, javascript",
                "regex": "XihkbnN8ZmlsZXxodHRwfGhlYWRsZXNzfHRjcHx3b3JrZmxvd3xzc2x8d2Vic29ja2V0fHdob2lzfGNvZGV8amF2YXNjcmlwdCkoLChkbnN8ZmlsZXxodHRwfGhlYWRsZXNzfHRjcHx3b3JrZmxvd3xzc2x8d2Vic29ja2V0fHdob2lzfGNvZGV8amF2YXNjcmlwdCkpKiQ=",
                "formattype": "switch-textbox"
            },
            {
                "title": "Exclude templates based on protocol type",
                "maingroup": "Filtering",
                "subgroup": "",
                "flag": "-ept",
                "value": "",
                "needcheckbox": true,
                "checkbox": false,
                "textinput": true,
                "information": "Templates to exclude based on protocol type. Possible values: dns, file, http, headless, tcp, workflow, ssl, websocket, whois, code, javascript",
                "regex": "XihkbnN8ZmlsZXxodHRwfGhlYWRsZXNzfHRjcHx3b3JrZmxvd3xzc2x8d2Vic29ja2V0fHdob2lzfGNvZGV8amF2YXNjcmlwdCkoLChkbnN8ZmlsZXxodHRwfGhlYWRsZXNzfHRjcHx3b3JrZmxvd3xzc2x8d2Vic29ja2V0fHdob2lzfGNvZGV8amF2YXNjcmlwdCkpKiQ=",
                "formattype": "switch-textbox"
            },
            {
                "title": "Disable Interactsh Server",
                "maingroup": "Interactsh",
                "subgroup": "",
                "flag": "-ni",
                "value": "",
                "needcheckbox": true,
                "checkbox": false,
                "textinput": false,
                "information": "Disable Interactsh server for OAST testing, exclude OAST based templates",
                "regex": "",
                "formattype": "switch"
            }
        ]
    }
]