{
  "table":[
  {
    "item": 
      {
        "row": [
          {
            "columns": [
              {
                "value": "IP",
                "color": ""
              },
              {
                "value": "127.0.0.1",
                "color": ""
              },
              {
                "value": "Hostname",
                "color": ""
              },
              {
                "value": "localhost",
                "color": ""
              }
            ]
          },
          {
            "columns": [
              {
                "value": "Open Ports",
                "color": ""
              },
              {
                "value": "Service",
                "color": ""
              },
              {
                "value": "Protocol",
                "color": ""
              },
              {
                "value": "Reason",
                "color": ""
              }
            ]
          },
          {
            "columns": [
              {
                "value": "631",
                "color": ""
              },
              {
                "value": "ipp",
                "color": ""
              },
              {
                "value": "tcp",
                "color": ""
              },
              {
                "value": "syn-ack",
                "color": ""
              }
            ]
          }
        ]
      }
    
  },{
    "item":
      {
        "row": [
          {
            "columns": [
              {
                "value": "IP",
                "color": ""
              },
              {
                "value": "8.8.8.8",
                "color": ""
              },
              {
                "value": "Hostname",
                "color": ""
              },
              {
                "value": "google.dns",
                "color": ""
              }
            ]
          },
          {
            "columns": [
              {
                "value": "Open Ports",
                "color": ""
              },
              {
                "value": "Service Name",
                "color": ""
              },
              {
                "value": "Protocol",
                "color": ""
              },
              {
                "value": "Reason",
                "color": ""
              }
            ]
          },
          {
            "columns": [
              {
                "value": "53",
                "color": ""
              },
              {
                "value": "domain",
                "color": ""
              },
              {
                "value": "tcp",
                "color": ""
              },
              {
                "value": "syn-ack",
                "color": ""
              }
            ]
          },
          {
            "columns": [
              {
                "value": "443",
                "color": ""
              },
              {
                "value": "https",
                "color": ""
              },
              {
                "value": "tcp",
                "color": ""
              },
              {
                "value": "syn-ack",
                "color": ""
              }
            ]
          }
        ]
      }
  }
]}
