[{
    "machinename":"defaultmachine",
    "username":"defaultuser",
    "password":"defaultpassword",
    "os_type":"debian",
    "persistent":true,
    "boxSpecifications": {
        "boxname":"debian/bookworm64",
        "cpu":"4",
        "size":512,
        "provider":"libvirt",
        "ttl":"100000",
        "boxIp":"192.168.42.10",
        "gui":true
    }
},
{
    "machinename":"metasploitmachine",
    "username":"metasploituser",
    "password":"metasploitpassword",
    "persistent":true,
    "os_type":"kali",
    "boxSpecifications": {
        "boxname":"elrey741/kali-linux_amd64",
        "cpu":"4",
        "size":1024,
        "provider":"libvirt",
        "ttl":"10000",
        "boxIP":"192.168.42.11",
        "gui":true
    }
}]

