[
    {
        "name": "nikto",
        "optionsid": "nikto01",
        "optionsname": "",
        "options": [
            {
                "title": "IP/Host",
                "maingroup": "Required",
                "subgroup": "",
                "flag": "-h",
                "value": "",
                "needcheckbox": false,
                "checkbox": false,
                "textinput": true,
                "information": "IP or URL of the target host",
                "regex": "XihodHRwcz86XC9cLyk/KHd3d1wuKT9bLWEtekEtWjAtOUA6JS5fXCt+Iz1dezEsMjU2fVwuW2EtekEtWjAtOSgpXXsxLDZ9XGIoWy1hLXpBLVowLTkoKUA6JV9cKy5+Iz8mLy89XSopJA==",
                "formattype": "text"
            },
            {
                "title": "Port",
                "maingroup": "General Options",
                "subgroup": "",
                "flag": "-p",
                "value": "",
                "needcheckbox": true,
                "checkbox": false,
                "textinput": true,
                "information": "Port to use (default 80)",
                "regex": "XihbMC05XXsxLDR9KC1bMC05XXsxLDR9KT8oLFswLTldezEsNH0oLVswLTldezEsNH0pPykqKT8k",
                "formattype": "switch-textbox"
            },
            {
                "title": "Enable SSL",
                "maingroup": "General Options",
                "subgroup": "",
                "flag": "-ssl",
                "value": "",
                "needcheckbox": true,
                "checkbox": false,
                "textinput": false,
                "information": "Force ssl mode on port",
                "regex": "",
                "formattype": "switch"
            },
            {
                "title": "Display",
                "maingroup": "General Options",
                "subgroup": "",
                "flag": "-Display",
                "value": "",
                "needcheckbox": true,
                "checkbox": false,
                "textinput": true,
                "information": "Turn on/off display outputs",
                "regex": "XlsxMjM0RFZFU1BdezEsfSQ=",
                "formattype": "switch-textbox"
            },
            {
                "title": "Evasion",
                "maingroup": "General Options",
                "subgroup": "",
                "flag": "-evasion",
                "value": "",
                "needcheckbox": true,
                "checkbox": false,
                "textinput": true,
                "information": "Encoding technique",
                "regex": "XlsxMjM0NTY3OEFCXSQ=",
                "formattype": "switch-textbox"
            },
            {
                "title": "Format",
                "maingroup": "General Options",
                "subgroup": "",
                "flag": "-Format",
                "value": "",
                "needcheckbox": true,
                "checkbox": false,
                "textinput": true,
                "information": "Specify desired output format",
                "regex": "Xihjc3Z8aHRtfG1zZlwrfG5iZXx0eHR8eG1sKSQ=",
                "formattype": "switch-textbox"
            },
            {
                "title": "Authentication",
                "maingroup": "General Options",
                "subgroup": "",
                "flag": "-id",
                "value": "",
                "needcheckbox": true,
                "checkbox": false,
                "textinput": true,
                "information": "Host authentication to use, format is id:pass or id:pass:realm",
                "regex": "XltefCY6XXsxLDEyOH06W158JjpdezEsMTI4fSg6W158Jl17MSwxMjh9KT8k",
                "formattype": "switch-textbox"
            },
            {
                "title": "Mutate",
                "maingroup": "General Options",
                "subgroup": "",
                "flag": "-mutate",
                "value": "",
                "needcheckbox": true,
                "checkbox": false,
                "textinput": true,
                "information": "Guess additional file names",
                "regex": "XlsxMjM0NTZdJA==",
                "formattype": "switch-textbox"
            },
            {
                "title": "No404",
                "maingroup": "General Options",
                "subgroup": "",
                "flag": "-no404",
                "value": "",
                "needcheckbox": true,
                "checkbox": false,
                "textinput": false,
                "information": "Disables nikto attempting to guess a 404 page",
                "regex": "",
                "formattype": "switch"
            },
            {
                "title": "Tuning",
                "maingroup": "General Options",
                "subgroup": "",
                "flag": "-Tuning",
                "value": "",
                "needcheckbox": true,
                "checkbox": false,
                "textinput": true,
                "information": "Scan tuning",
                "regex": "XlsxMjM0NTY3ODkwYWJjXSQ=",
                "formattype": "switch-textbox"
            },
            {
                "title": "Nolookup",
                "maingroup": "General Options",
                "subgroup": "",
                "flag": "-nolookup",
                "value": "",
                "needcheckbox": true,
                "checkbox": false,
                "textinput": false,
                "information": "Disables DNS lookups",
                "regex": "",
                "formattype": "switch"
            },
            {
                "title": "Timeout",
                "maingroup": "General Options",
                "subgroup": "",
                "flag": "-timeout",
                "value": "",
                "needcheckbox": true,
                "checkbox": false,
                "textinput": true,
                "information": "Timeout for requests (default 10 seconds)",
                "regex": "XlswLTldezEsNX0k",
                "formattype": "switch-textbox"
            }
        ]
    }
]