{
    "comment": "agafar camp header entre requests?",
    "name": "test",
    "users": [
        {
            "username": "test@test.com",
            "password": "3bab011a9fbb6df726c21ada3ca1f43db31636777136b9998e07bf7e6364dc312dcd75e93187e2fb850868c3fa05251eb1dd314e072e7684ed092de301c36e1d",
            "roles":[
                {
                    "role": "readWrite",
                    "db": "test_db"
                }
            ],

            "client": "test_db"
        }
    ],
    "actions": [
        {
            "id": "login",
            "topic": "ui-db.login",
            "request": {
                "username": "test@test.com",
                "hash": "test_hash"
            },
            "response": {
                "success": "true"
            }
        },

        {
            "id": "get_results",
            "topic": "ui-db.getAttacks",
            "for": {
                "start": 0,
                "end": 1000000
            },
            "timeout": 300000,
            "request": {
                "session_id": "$login/session_id"
            },
            "response": {
                "success": "true"
            }
        }
    ]
}