module rabbitMQ

go 1.20

require (
	github.com/99designs/keyring v1.1.6 // indirect
	github.com/AthenZ/athenz v1.10.45 // indirect
	github.com/DataDog/zstd v1.5.0 // indirect
	github.com/apache/pulsar-client-go v0.7.0 // indirect
	github.com/apache/pulsar/pulsar-function-go v0.0.0-20220208104149-32700c94b6f7 // indirect
	github.com/ardielle/ardielle-go v1.5.2 // indirect
	github.com/beorn7/perks v1.0.1 // indirect
	github.com/cespare/xxhash/v2 v2.1.2 // indirect
	github.com/danieljoos/wincred v1.1.2 // indirect
	github.com/davecgh/go-spew v1.1.1 // indirect
	github.com/dgrijalva/jwt-go v3.2.0+incompatible // indirect
	github.com/dvsekhvalnov/jose2go v1.5.0 // indirect
	github.com/godbus/dbus v0.0.0-20190726142602-4481cbc300e2 // indirect
	github.com/gogo/protobuf v1.3.2 // indirect
	github.com/golang-jwt/jwt v3.2.2+incompatible // indirect
	github.com/golang/protobuf v1.5.2 // indirect
	github.com/golang/snappy v0.0.4 // indirect
	github.com/gsterjov/go-libsecret v0.0.0-20161001094733-a6f4afe4910c // indirect
	github.com/keybase/go-keychain v0.0.0-20211119201326-e02f34051621 // indirect
	github.com/klauspost/compress v1.14.2 // indirect
	github.com/konsorten/go-windows-terminal-sequences v1.0.3 // indirect
	github.com/linkedin/goavro/v2 v2.11.0 // indirect
	github.com/matttproud/golang_protobuf_extensions v1.0.1 // indirect
	github.com/mitchellh/go-homedir v1.1.0 // indirect
	github.com/mtibben/percent v0.2.1 // indirect
	github.com/pierrec/lz4 v2.6.1+incompatible // indirect
	github.com/pkg/errors v0.9.1 // indirect
	github.com/pmezard/go-difflib v1.0.0 // indirect
	github.com/prometheus/client_golang v1.12.1 // indirect
	github.com/prometheus/client_model v0.2.0 // indirect
	github.com/prometheus/common v0.32.1 // indirect
	github.com/prometheus/procfs v0.7.3 // indirect
	github.com/sirupsen/logrus v1.8.1 // indirect
	github.com/spaolacci/murmur3 v1.1.0 // indirect
	github.com/streadway/amqp v1.0.0 // indirect
	github.com/stretchr/testify v1.7.0 // indirect
	go.uber.org/atomic v1.9.0 // indirect
	golang.org/x/crypto v0.0.0-20220131195533-30dcbda58838 // indirect
	golang.org/x/net v0.0.0-20220127200216-cd36cc0744dd // indirect
	golang.org/x/oauth2 v0.0.0-20211104180415-d3ed0bb246c8 // indirect
	golang.org/x/sys v0.0.0-20220204135822-1c1b9b1eba6a // indirect
	golang.org/x/term v0.0.0-20210927222741-03fcf44c2211 // indirect
	golang.org/x/text v0.3.7 // indirect
	google.golang.org/appengine v1.6.7 // indirect
	google.golang.org/genproto v0.0.0-20200825200019-8632dd797987 // indirect
	google.golang.org/grpc v1.43.0 // indirect
	google.golang.org/protobuf v1.27.1 // indirect
	gopkg.in/yaml.v2 v2.4.0 // indirect
	gopkg.in/yaml.v3 v3.0.0-20210107192922-496545a6307b // indirect
)
